	Con_SMILES	Reactivation	activity
0	CCCOc1nn(C(=O)NS(=O)(=O)c2ccccc2C(=O)OC)c(=O)n1C	0.0	0
1	c1cc(C=NO)cc[n+]1-CCCCO-c2ccc(C(=O)C)cc2	0.34	1
2	CC1(C)C(C=C(Cl)C(F)(F)F)C1C(=O)OC(C#N)c1cccc(Oc2ccccc2)c1	0.0	0
3	CC(CNC(=S)[S-])NC(=S)[S-].[Zn+2]	0.0	0
4	CC(C)=NOCCOC(=O)C(C)Oc1ccc(Oc2cnc3cc(Cl)ccc3n2)cc1	0.0	0
5	CC(Oc1ccc(Oc2ncc(C(F)(F)F)cc2Cl)cc1)C(=O)O	0.0	0
6	c1cc(C=NO)cc[n+]1-CCCCCO-c2ccc(C(=O)-c3ccccc3)cc2	0.71	1
7	O=C1c2ccccc2C(=O)N1SC(Cl)(Cl)Cl	0.0	0
8	Cc1c(COC(=O)C2C(C=C(Cl)C(F)(F)F)C2(C)C)cccc1-c1ccccc1	0.0	0
9	CCC(=NOCC=CCl)C1=C(O)CC(C2CCOCC2)CC1=O	0.0	0
10	O=C(O)CNCP(=O)(O)O	0.0	0
11	CC(Cc1ccc(C(C)(C)C)cc1)CN1CC(C)OC(C)C1	0.0	0
12	CC(C)OC(=O)NC(C(=O)NC(C)c1nc2ccc(F)cc2s1)C(C)C	0.0	0
13	CC(C)(C)C(O)C(Oc1ccc(Cl)cc1)n1cncn1	0.0	0
14	CCCOc1nc2ccc(I)cc2c(=O)n1CCC	0.0	0
15	CN=C(NCC1CCOC1)N[N+](=O)O	0.0	0
16	CCCC1COC(Cn2cncn2)(c2ccc(Cl)cc2Cl)O1	0.0	0
17	CC(C)C1C2CCC1c1c(NC(=O)c3cn(C)nc3C(F)F)cccc12	0.0	0
18	COC(=O)C(C)Oc1ccc(Oc2ccc(Cl)cc2Cl)cc1	0.0	0
19	c1cc(C=NO)cc[n+]1-CCCCCO-c2c(C)cc(N(=O)=O)cc2	0.31	1
20	CC1=CCC2CC(CC3(CCC(C)C(C)O3)O2)OC(=O)C2C=C(C)C(O)C3OCC(=CC=CC(C)C1)C23O	0.0	0
21	CCOC(=O)Nc1cccc(OC(=O)Nc2ccccc2)c1	0.0	0
22	S=C([S-])NCCNC(=S)[S-].[Mn+2]	0.0	0
23	CCCCCCCC(=O)Oc1c(I)cc(C#N)cc1I	0.0	0
24	Fc1ccc(C2(Cn3cncn3)OC2c2ccccc2Cl)cc1	0.0	0
25	c1cc(C=NO)cc[n+]1-CCCCO-c2c(C(C)C)cccc2(C(C)C)	0.53	1
26	c1cc(C=NO)cc[n+]1-CCCCO-c2c(C(C)(C)C)cc(C(C)(C)C)cc2	0.18	1
27	c1cc(C=NO)cc[n+]1-CCCCO-c2ccc(N(=O)=O)cc2	0.46	1
28	N#Cc1c[nH]cc1-c1cccc2c1OC(F)(F)O2	0.0	0
29	OC(Cn1cncn1)(c1ccc(F)cc1)c1ccccc1F	0.0	0
30	CCCCCCCCSC(=O)Oc1cc(Cl)nnc1-c1ccccc1	0.0	0
31	Nc1c(Cl)c(Cl)nc(C(=O)O)c1Cl	0.0	0
32	CC(C1CC1)C(O)(Cn1cncn1)c1ccc(Cl)cc1	0.0	0
33	CNC(=O)ON=C(SC)C(=O)N(C)C	0.0	0
34	COc1cc(OC)nc(NC(=O)NS(=O)(=O)c2cc(NC=O)ccc2C(=O)N(C)C)n1	0.0	0
35	c1cc(C=NO)cc[n+]1-CCCCO-c2c(Cl)cc(Cl)cc2	0.44	1
36	O=C1C2CC=CCC2C(=O)N1SC(Cl)(Cl)Cl	0.0	0
37	CCOC(=O)C(C)Oc1ccc(Oc2cnc3cc(Cl)ccc3n2)cc1	0.0	0
38	CC(C)(C)c1ccc(CSc2cnn(C(C)(C)C)c(=O)c2Cl)cc1	0.0	0
39	c1cc(C=NO)cc[n+]1-CCCCCCO-c2ccc(c3ccccc3)cc2	0.25	1
40	CC(C)C(C(=O)OC(C#N)c1cccc(Oc2ccccc2)c1)c1ccc(Cl)cc1	0.0	0
41	CNC(=O)c1cc(Cl)cc(C)c1NC(=O)c1cc(Br)nn1-c1ncccc1Cl	0.0	0
42	CCCN(CC)CC1COC2(CCC(C(C)(C)C)CC2)O1	0.0	0
43	O=c1[nH]c2c(c(=O)n1C1CCCCC1)CCC2	0.0	0
44	C=CCOC(Cn1ccnc1)c1ccc(Cl)cc1Cl	0.0	0
45	COc1ccc(C(=CC(=O)N2CCOCC2)c2ccc(Cl)cc2)cc1OC	0.0	0
46	c1(=O)oc2cc(OCCCCC-[n+]3ccc(C=NO)cc3)ccc2c(C)c1	0.52	1
47	S=C([S-])NCCNC(=S)[S-].[Zn+2]	0.0	0
48	c1cc(C=NO)cc[n+]1-CCCCCO-c2ccc(Cl)cc2	0.39	1
49	c1cc(C=NO)cc[n+]1-CCCCO-c2c(Br)cc(Cl)cc2	0.65	1
50	COc1cc(OC)nc(NC(=O)NS(=O)(=O)c2c(Cl)nc3ccccn23)n1	0.0	0
51	O=C(O)COc1nc(Cl)c(Cl)cc1Cl	0.0	0
52	c1cc(C=NO)cc[n+]1-CCCCO-c2c(Cl)ccc(Cl)c2	0.72	1
53	COc1nc(NC(=O)NS(=O)(=O)c2ccccc2C(F)(F)F)nc(C(F)(F)F)n1	0.0	0
54	c1cc2cc(OCCCC-[n+]3ccc(C=NO)cc3)ccc2cc1	0.65	1
55	c1cc(C=NO)cc[n+]1-CCCCO-c2c(C)c(C)cc(C)c2	0.67	1
56	CCc1cc(C)cc(CC)c1-c1c(OC(=O)C(C)(C)C)n2n(c1=O)CCOCC2	0.0	0
57	COc1cc(OC)nc(NC(=O)NS(=O)(=O)c2ncccc2C(F)(F)F)n1	0.0	0
58	c1cc(C=NO)cc[n+]1-CCCCO-c2c(C)cc(C(C)(C)C)cc2	0.39	1
59	c1cc2c(OCCC-[n+]3ccc(C=NO)cc3)cccc2cc1	0.58	1
60	CC1(C)CON(Cc2ccccc2Cl)C1=O	0.0	0
61	COc1nc(C)nc(NC(=O)NS(=O)(=O)c2cc(I)ccc2C(=O)O)n1	0.0	0
62	c1cc(C=NO)cc[n+]1-CCCCCO-c2c(Br)cc(Br)cc2	0.36	1
63	CCCCCCCCCCCCC1=C(OC(C)=O)C(=O)c2ccccc2C1=O	0.0	0
64	O=C(NC(=O)c1c(F)cccc1F)Nc1cc(Cl)c(OC(F)(F)C(F)C(F)(F)F)cc1Cl	0.0	0
65	COc1cc(OC)nc(NC(=O)NS(=O)(=O)c2ncccc2C(=O)N(C)C)n1	0.0	0
66	c1cc(C=NO)cc[n+]1-CCCCO-c2ccc(C(C)(C)-c3ccccc3)cc2	0.46	1
67	CON=C(C(=O)OC)c1ccccc1CON=C(C)c1cccc(C(F)(F)F)c1	0.0	0
68	c1cc(C=NO)cc[n+]1-CCCO-c2c(Cl)cc(Cl)c(Cl)c2	0.16	1
69	CCOC1Oc2ccc(OS(C)(=O)=O)cc2C1(C)C	0.0	0
70	C#CCOc1cc(-n2nc(C(C)(C)C)oc2=O)c(Cl)cc1Cl	0.0	0
71	CCOc1ccc(C(C)(C)COCc2cccc(Oc3ccccc3)c2)cc1	0.0	0
72	Cc1cc(C(F)(F)F)nn1CC(=O)N1CCC(c2nc(C3=NOC(c4c(F)cccc4F)C3)cs2)CC1	0.0	0
73	CCC(CC)Nc1c([N+](=O)[O-])cc(C)c(C)c1[N+](=O)[O-]	0.0	0
74	c1cc(C=NO)cc[n+]1-CCCO-c2ccc(OC)cc2	0.35	1
75	c1cc(C=NO)cc[n+]1-CCCO-c2cc(Cl)c(Cl)cc2	0.55	1
76	Cc1c(F)c(F)c(COC(=O)C2C(C=C(Cl)C(F)(F)F)C2(C)C)c(F)c1F	0.0	0
77	Cc1cc(Cl)ccc1OC(C)C(=O)O	0.0	0
78	CS(=O)(=O)c1ccc(C(=O)C2C(=O)CCCC2=O)c([N+](=O)[O-])c1	0.0	0
79	CCOC(=O)C(C)Oc1ccc(Oc2nc3ccc(Cl)cc3o2)cc1	0.0	0
80	CCCN(CCC)c1c([N+](=O)[O-])cc(S(N)(=O)=O)cc1[N+](=O)[O-]	0.0	0
81	COC(=O)c1ccc(C(F)(F)F)nc1S(=O)(=O)NC(=O)Nc1nc(OC)cc(OC)n1	0.0	0
82	FC(F)C(F)(F)OCC(Cn1cncn1)c1ccc(Cl)cc1Cl	0.0	0
83	COc1cccc(C(=O)NN(C(=O)c2cc(C)cc(C)c2)C(C)(C)C)c1C	0.0	0
84	Cc1ccc(C(C)NC(=O)C(NC(=O)OC(C)C)C(C)C)cc1	0.0	0
85	c1cc2c(OCCCC-[n+]3ccc(C=NO)cc3)cccc2cc1	0.43	1
86	O=[P+]([O-])[O-].[K+].[K+]	0.0	0
87	CC(Oc1ccc(Cl)cc1Cl)C(=O)O	0.0	0
88	Nc1cnn(-c2ccccc2)c(=O)c1Cl	0.0	0
89	c1cc(C=NO)cc[n+]1-CCCO-c2ccc(C(=O)C)cc2	0.4	1
90	O=C(Nc1ccc(F)cc1)c1cccc(Oc2cccc(C(F)(F)F)c2)n1	0.0	0
91	CC1COc2ccccc2N1C(=O)C(Cl)Cl	0.0	0
92	CCOP(=S)(OCC)Oc1nc(Cl)c(Cl)cc1Cl	0.0	0
93	c1cc(C=NO)cc[n+]1-CCCCCO-c2ccc(OC)cc2	0.3	1
94	c1cc(C=NO)cc[n+]1-CCCCO-c2ccc(C(C)(C)C)cc2	0.36	1
95	c1cc2cc(OCCCCC-[n+]3ccc(C=NO)cc3)ccc2cc1	0.59	1
96	COC(=O)NC(=S)Nc1ccccc1NC(=S)NC(=O)OC	0.0	0
97	CC1(c2ccc(Oc3ccccc3)cc2)OC(=O)N(Nc2ccccc2)C1=O	0.0	0
98	Clc1ccc(C2(Cn3cncn3)CC(Br)CO2)c(Cl)c1	0.0	0
99	O=C(NCCc1ncc(C(F)(F)F)cc1Cl)c1ccccc1C(F)(F)F	0.0	0
100	Cc1nc(N(C)C)nc(OC(=O)N(C)C)c1C	0.0	0
101	CCc1nn(C)c(C(=O)NCc2ccc(C(C)(C)C)cc2)c1Cl	0.0	0
102	CCOP(=S)(OCC)Oc1nc(Cl)c(Cl)cc1Cl	0.0	0
103	CC1(C)CCC(=Cc2ccc(Cl)cc2)C1(O)Cn1cncn1	0.0	0
104	CC1(C(=O)Nc2ccc(O)c(Cl)c2Cl)CCCCC1	0.0	0
105	COC(=O)c1csc(C)c1S(=O)(=O)NC(=O)n1nc(OC)n(C)c1=O	0.0	0
106	CCC(Oc1ccc(F)c(C(F)(F)F)c1)C(=O)NCc1ccccc1	0.0	0
107	c1cc(C=NO)cc[n+]1-CCCCCO-c2c(Cl)ccc(Cl)c2	0.58	1
108	CC(Cc1ccc(C(C)(C)C)cc1)CN1CCCCC1	0.0	0
109	COc1cc(OC)nc(NC(=O)NS(=O)(=O)c2cc(CNS(C)(=O)=O)ccc2C(=O)O)n1	0.0	0
110	O=C1C(Cl)C(CCl)CN1c1cccc(C(F)(F)F)c1	0.0	0
111	c1cc(C=NO)cc[n+]1-CCCCO-c2cc(N(=O)=O)c(Cl)cc2	0.21	1
112	COC(=O)Nc1cccc(OC(=O)Nc2cccc(C)c2)c1	0.0	0
113	CC(C)NC(=O)N1CC(=O)N(c2cc(Cl)cc(Cl)c2)C1=O	0.0	0
114	COCc1cnc(C2=NC(C)(C(C)C)C(=O)N2)c(C(=O)O)c1	0.0	0
115	c1cc(C=NO)cc[n+]1-CCCCO-c2ccc(C(=O)C-c3ccccc3)cc2	0.53	1
116	CC(C)C1(C)N=C(c2nc3ccccc3cc2C(=O)O)NC1=O	0.0	0
117	CN(C)C(=S)[S-].CN(C)C(=S)[S-].[Zn+2]	0.0	0
118	CC(C)N1C(=O)c2ccccc2NS1(=O)=O	0.0	0
119	C#CC(C)(C)NC(=O)c1cc(Cl)cc(Cl)c1	0.0	0
120	CC1(C)C(C=C(Cl)Cl)C1C(=O)OC(C#N)c1ccc(F)c(Oc2ccccc2)c1	0.0	0
121	CCC(C)(NC(=O)c1cc(Cl)c(C)c(Cl)c1)C(=O)CCl	0.0	0
122	N#Cc1nn(-c2c(Cl)cc(C(F)(F)F)cc2Cl)c(N)c1S(=O)C(F)(F)F	0.0	0
123	Nc1c([N+](=O)[O-])ccc(Oc2ccccc2)c1Cl	0.0	0
124	CON=C(C(=O)OC)c1ccccc1CON=C(C)c1cccc(C(F)(F)F)c1	0.0	0
125	CS(=O)(=O)c1ccc(C(=O)C2C(=O)CCCC2=O)c(Cl)c1COCC(F)(F)F	0.0	0
126	CC1(C)C(C=C(Br)Br)C1C(=O)OC(C#N)c1cccc(Oc2ccccc2)c1	0.0	0
127	O=c1c2cc(F)ccc2nc(-n2cncn2)n1-c1ccc(Cl)cc1Cl	0.0	0
128	CC1OC(C)OC(C)OC(C)O1	0.0	0
129	c1cc(C=NO)cc[n+]1-CCCO-c2c(C)c(C)cc(C)c2	0.47	1
130	COc1cc(OC)n2nc(NS(=O)(=O)c3c(C(F)(F)F)ccnc3OC)nc2n1	0.0	0
131	COCC(=O)N(c1c(C)cccc1C)C(C)C(=O)OC	0.0	0
132	N#Cc1c(Cl)c(Cl)c(Cl)c(C#N)c1Cl	0.0	0
133	CCS(=O)(=O)c1cccnc1S(=O)(=O)NC(=O)Nc1nc(OC)cc(OC)n1	0.0	0
134	c1cccc[n+]1-CCCCO-c2ccccc2	0.41	1
135	CN(C)C(=S)SSC(=S)N(C)C	0.0	0
136	c1cc(C=NO)cc[n+]1-CCCCCO-c2ccc(C(C)(C)CC)cc2	0.34	1
137	N#CN=C1SCCN1Cc1ccc(Cl)nc1	0.0	0
138	CC#Cc1cc(C)nc(Nc2ccccc2)n1	0.0	0
139	c1cc(C=NO)cc[n+]1-CCCCO-c2c(Cl)cc(Cl)cc2(Cl)	0.56	1
140	c1cc(C=NO)cc[n+]1-CCCCO-c2ccc(C(=O)CC)cc2	0.34	1
141	c1cc(C=NO)cc[n+]1-CCCCCO-c2ccc(C-c3ccccc3)cc2	0.3	1
142	c1cc(C=NO)cc[n+]1-CCCCCO-c2ccc(C(=O)C-c3ccccc3)cc2	0.0	0
143	CCCN(CCC)C(=O)SCc1ccccc1	0.0	0
144	CCOP(=O)(SC(C)CC)N1CCSC1=O	0.0	0
145	CCCCOC(=O)C(C)Oc1ccc(Oc2ccc(C#N)cc2F)cc1	0.0	0
146	c1cc(C=NO)cc[n+]1-CCCCO-c2ccc(C-c3ccccc3)cc2	0.34	1
147	c1cc(C=NO)cc[n+]1-CCCCO-c2ccc(C(C)(C)CC)cc2	0.36	1
148	c1ccc2[nH]c(-c3cscn3)nc2c1	0.0	0
149	CCOC(=O)COc1cc(-c2nn(C)c(OC(F)F)c2Cl)c(F)cc1Cl	0.0	0
150	c1(=O)oc2cc(OCCC-[n+]3ccc(C=NO)cc3)ccc2c(C)c1	0.2	1
151	[S]	0.0	0
152	CCCN(CCOc1c(Cl)cc(Cl)cc1Cl)C(=O)n1ccnc1	0.0	0
153	Cc1cc(Cl)ccc1OCCCC(=O)O	0.0	0
154	COCCN(C(=O)CCl)c1c(C)cccc1C	0.0	0
155	c1cc(C=NO)cc[n+]1-CCCO-c2c(Cl)cc(Cl)cc2(Cl)	0.38	1
156	c1cc2c(OCCCCC-[n+]3ccc(C=NO)cc3)cccc2cc1	0.58	1
157	CON=C(C1=NOCCO1)c1ccccc1Oc1ncnc(Oc2ccccc2Cl)c1F	0.0	0
158	CC1(C)C(C=C(Cl)Cl)C1C(=O)OC(C#N)c1ccc(F)c(Oc2ccccc2)c1	0.0	0
159	Cc1cc(Cl)ccc1OCC(=O)O	0.0	0
160	CCCCc1c(C)nc(NCC)nc1OS(=O)(=O)N(C)C	0.0	0
161	COc1ncc(F)c2nc(S(=O)(=O)Nc3c(F)cccc3F)nn12	0.0	0
162	CC1(C)C(C=C(Cl)Cl)C1C(=O)OC(C#N)c1cccc(Oc2ccccc2)c1	0.0	0
163	O=C(O)c1nc(Cl)ccc1Cl	0.0	0
164	CSC1=NC(C)(c2ccccc2)C(=O)N1Nc1ccccc1	0.0	0
165	CNC(=O)Oc1cc(C)c(SC)c(C)c1	0.0	0
166	COP(=S)(OC)SCN1C(=O)c2ccccc2C1=O	0.0	0
167	COc1cc(OC)n2nc(S(=O)(=O)Nc3c(Cl)ccc(C)c3Cl)nc2n1	0.0	0
168	CC1(C)C(C=CC(=O)OC(C(F)(F)F)C(F)(F)F)C1C(=O)OC(C#N)c1cccc(Oc2ccccc2)c1	0.0	0
169	CCCC(Cn1cncn1)c1ccc(Cl)cc1Cl	0.0	0
170	c1cccc[n+]1-CCCO-c2ccccc2	0.37	1
171	Cc1cc(Cl)ccc1OC(C)C(=O)O	0.0	0
172	COC(=O)CC(NC(=O)C(NC(=O)OC(C)C)C(C)C)c1ccc(Cl)cc1	0.0	0
173	CCCCN(CC)c1c([N+](=O)[O-])cc(C(F)(F)F)cc1[N+](=O)[O-]	0.0	0
174	Nc1c(Cl)c(F)nc(OCC(=O)O)c1Cl	0.0	0
175	CC1COC(Cn2cncn2)(c2ccc(Oc3ccc(Cl)cc3)cc2Cl)O1	0.0	0
176	CCOC(=O)CC(SP(=S)(OC)OC)C(=O)OCC	0.0	0
177	c1cc(C=NO)cc[n+]1-CCCCO-c2ccc(Cl)cc2	0.54	1
178	Cn1cc(C(=O)Nc2ccccc2C2CC2C2CC2)c(C(F)F)n1	0.0	0
179	CCS(=O)(=O)c1nc2ccccn2c1S(=O)(=O)NC(=O)Nc1nc(OC)cc(OC)n1	0.0	0
180	CON=C(C(=O)OC)c1ccccc1COc1ccccc1C	0.0	0
181	c1cc(C=NO)cc[n+]1-CCCCO-c2c(Br)cc(Br)cc2	0.51	1
182	Cc1cnc2c(C(=O)O)c(Cl)ccc2c1	0.0	0
183	CC(C)(C)C(O)(CCc1ccc(Cl)cc1)Cn1cncn1	0.0	0
184	c1cc(C=NO)cc[n+]1-CCCCO-c2ccc(C(=O)-c3ccccc3)cc2	0.72	1
185	c1cc(C=NO)cc[n+]1-CCCCO-c2cc(C)c(Cl)c(C)c2	0.65	1
186	CNC(=O)ON=C(C)SC	0.0	0
187	CCC(C)C1OC2(C=CC1C)CC1CC(CC=C(C)C(OC3CC(OC)C(OC4CC(OC)C(O)C(C)O4)C(C)O3)C(C)C=CC=C3COC4C(O)C(C)=CC(C(=O)O1)C34O)O2.COC1CC(OC2C(C)OC(OC3C(C)=CCC4CC(CC5(C=CC(C)C(C(C)C)O5)O4)OC(=O)C4C=C(C)C(O)C5OCC(=CC=CC3C)C45O)CC2OC)OC(C)C1O	0.0	0
188	CCC(C)(NC(=O)c1cc(Cl)c(C)c(Cl)c1)C(=O)CCl	0.0	0
189	CCOc1cc(Oc2ccc(C(F)(F)F)cc2Cl)ccc1[N+](=O)[O-]	0.0	0
190	c1cc(C=NO)cc[n+]1-CCCCO-c2c(Cl)cc(Cl)c(Cl)c2	0.51	1
191	c1cc(C=NO)cc[n+]1-CCCCO-c2ccc(C)cc2	0.49	1
192	c1cc(C=NO)cc[n+]1-CCCCO-c2cc(C)c(Br)c(C)c2	0.46	1
193	CC1(C)C(C=C(Cl)Cl)C1C(=O)OC(C#N)c1cccc(Oc2ccccc2)c1	0.0	0
194	CCC(C)(NC(=O)c1cc(Cl)c(C)c(Cl)c1)C(=O)CCl	0.0	0
195	CCCCCCCC(=O)Oc1c(Br)cc(C#N)cc1Br	0.0	0
196	CC1(c2ccc(Oc3ccccc3)cc2)OC(=O)N(Nc2ccccc2)C1=O	0.0	0
197	O=C(NC(=O)c1c(F)cccc1F)Nc1ccc(Cl)cc1	0.0	0
198	CC1(C)C(C=C(Cl)C(F)(F)F)C1C(=O)OC(C#N)c1cccc(Oc2ccccc2)c1	0.0	0
199	COc1nc(C)nc(N(C)C(=O)NS(=O)(=O)c2ccccc2C(=O)O)n1	0.0	0
200	c1cc(C=NO)cc[n+]1-CCCCO-c2c(Cl)cc(N(=O)=O)cc2(Cl)	0.38	1
201	CCCCOC(=O)C(C)Oc1ccc(Oc2ccc(C(F)(F)F)cn2)cc1	0.0	0
202	CCON=C(CC)C1=C(O)CC(c2c(C)cc(C)cc2C)CC1=O	0.0	0
203	c1cc(C=NO)cc[n+]1-CCCCO-c2ccc(OCCCCCCC)cc2	0.31	1
204	COC(=O)N(C(=O)N1COC2(C(=O)OC)Cc3cc(Cl)ccc3C2=N1)c1ccc(OC(F)(F)F)cc1	0.0	0
205	Cc1ccc(-c2c(Cl)nc(C#N)n2S(=O)(=O)N(C)C)cc1	0.0	0
206	COC=C(C(=O)OC)c1ccccc1Oc1cc(Oc2ccccc2C#N)ncn1	0.0	0
207	c1cc(C=NO)cc[n+]1-CCCO-c2c(Br)cc(Br)cc2	0.27	1
208	C[Si](Cn1cncn1)(c1ccc(F)cc1)c1ccc(F)cc1	0.0	0
209	c1cc(C=NO)cc[n+]1-CCCO-c2ccc(OC-c3ccccc3)cc2	0.43	1
210	COC=C(C(=O)OC)c1ccccc1COc1cccc(C(F)(F)F)n1	0.0	0
211	CCc1ccc(C(=O)NN(C(=O)c2cc(C)cc(C)c2)C(C)(C)C)cc1	0.0	0
212	c1cc2cc(OCCCCCC-[n+]3ccc(C=NO)cc3)ccc2cc1	0.28	1
213	c1cc(C=NO)cc[n+]1-CCCCO-c2ccc(OC)cc2	0.53	1
214	CNC(=O)c1cc(Cl)cc(C)c1NC(=O)c1cc(Br)nn1-c1ncccc1Cl	0.0	0
215	CSC(=O)c1cccc2nnsc12	0.0	0
216	Cc1nnc(-c2ccccc2)c(=O)n1N	0.0	0
217	O=[N+]([O-])c1cc(C(F)(F)F)c(Cl)c([N+](=O)[O-])c1Nc1ncc(C(F)(F)F)cc1Cl	0.0	0
218	c1cc(C=NO)cc[n+]1-CCCCO-c2ccc(c3ccccc3)cc2	0.24	1
219	CC(C)(C)c1ccc(CCOc2ncnc3ccccc23)cc1	0.0	0
220	O=C(Nc1ccc(F)cc1F)c1cccnc1Oc1cccc(C(F)(F)F)c1	0.0	0
221	CCC(CC)Nc1c([N+](=O)[O-])cc(C)c(C)c1[N+](=O)[O-]	0.0	0
222	c1cc(C=NO)cc[n+]1-CCCCCO-c2c(C)c(C)cc(C)c2	0.49	1
223	CNC(=N[N+](=O)[O-])NCc1cnc(Cl)s1	0.0	0
224	CCCOC(=O)NCCCN(C)C	0.0	0
225	CCNC(=O)NC(=O)C(C#N)=NOC	0.0	0
226	c1cc(C=NO)cc[n+]1-CCCCCO-c2ccc(C(C)(C)-c3ccccc3)cc2	0.48	1
227	O=C(Nc1ccccc1)N(Cc1ccc(Cl)cc1)C1CCCC1	0.0	0
228	c1cc(C=NO)cc[n+]1-CCCCO-c2ccc(OC-c3ccccc3)cc2	0.53	1
229	C=CC=CCC1=C(C)C(OC(=O)C2C(C=C(C)C(=O)OC)C2(C)C)CC1=O	0.0	0
230	c1cc(C=NO)cc[n+]1-CCCCCO-c2ccc(C(=O)C)cc2	0.38	1
231	c1cc(C=NO)cc[n+]1-CCCCO-c2c(Br)cc(C)cc2(Br)	0.31	1
232	CC(C)C1CCC(Cc2ccc(Cl)cc2)C1(O)Cn1cncn1	0.0	0
233	c1cc(C=NO)cc[n+]1-CCCO-c2ccc(C(C)(C)CC)cc2	0.38	1
234	c1cc(C=NO)cc[n+]1-CCCCO-c2cc(Cl)c(Cl)cc2	0.71	1
235	c1cc(C=NO)cc[n+]1-CCCCCO-c2ccc(Br)cc2	0.38	1
236	C#CCN1C(=O)COc2cc(F)c(N3C(=O)C4=C(CCCC4)C3=O)cc21	0.0	0
237	CNC(=O)CSP(=S)(OC)OC	0.0	0
238	Nc1ncn[nH]1	0.0	0
239	COc1cc(C)c(C(=O)c2c(OC)ccc(Br)c2C)c(OC)c1OC	0.0	0
240	c1cc(C=NO)cc[n+]1-CCCO-c2ccc(C(=O)C-c3ccccc3)cc2	0.56	1
241	CCC1CCCC(OC2CCC(N(C)C)C(C)O2)C(C)C(=O)C2=CC3C(C=C(C)C4CC(OC5OC(C)C(OC)C(OC)C5OC)CC43)C2CC(=O)O1.CCC1CCCC(OC2CCC(N(C)C)C(C)O2)C(C)C(=O)C2=CC3C(C=CC4CC(OC5OC(C)C(OC)C(OC)C5OC)CC43)C2CC(=O)O1	0.0	0
242	c1cc(C=NO)cc[n+]1-CCCCO-c2c(C-c3ccccc3)cccc2	0.47	1
243	Cc1cccc(C)c1N(Cn1cccn1)C(=O)CCl	0.0	0
244	c1cc(C=NO)cc[n+]1-CCCCCCO-c2ccc(C(=O)C)cc2	0.48	1
245	COC(=O)N(OC)c1ccccc1COc1ccn(-c2ccc(Cl)cc2)n1	0.0	0
246	COC=C(C(=O)OC)c1ccccc1Oc1cc(Oc2ccccc2C#N)ncn1	0.0	0
247	c1cc(C=NO)cc[n+]1-CCCCCO-c2ccc(C(C)(C)CC(C)(C)C)cc2	0.51	1
248	Fc1ccc(Oc2ccnc3cc(Cl)cc(Cl)c23)cc1	0.0	0
249	CC(C)N(C(=O)COc1nnc(C(F)(F)F)s1)c1ccc(F)cc1	0.0	0
250	c1cc(C=NO)cc[n+]1-CCCCCO-c2c(Cl)cc(Cl)c(Cl)c2	0.52	1
251	COP(=S)(OC)Oc1c(Cl)cc(C)cc1Cl	0.0	0
252	S=C([S-])NCCNC(=S)[S-].S=C([S-])NCCNC(=S)[S-].[Mn+2].[Zn+2]	0.0	0
253	c1cc[n+]2c(c1)-c1cccc[n+]1CC2	0.0	0
254	c1cc(C=NO)cc[n+]1-CCCO-c2ccc(Br)cc2	0.51	1
255	c1cc(C=NO)cc[n+]1-CCCCO-c2cc(C)c(Cl)cc2	0.54	1
256	c1cc(C=NO)cc[n+]1-CCCCCO-c2ccc(C(=O)CC)cc2	0.48	1
257	CC1(C)CCC(Cc2ccc(Cl)cc2)C1(O)Cn1cncn1	0.0	0
258	COc1nc(C)nc(NC(=O)NS(=O)(=O)c2ccccc2CCC(F)(F)F)n1	0.0	0
259	c1cc(C=NO)cc[n+]1-CCCCO-c2c(C)cc(N(=O)=O)cc2	0.14	1
260	c1cc(C=NO)cc[n+]1-CCCCO-c2ccc(C(C)(C)CC(C)(C)C)cc2	0.41	1
261	O=[N+]([O-])N=C1NCCN1Cc1ccc(Cl)nc1	0.0	0
262	CSc1nnc(C(C)(C)C)c(=O)n1N	0.0	0
263	c1cc(C=NO)cc[n+]1-CCCCCCO-c2ccc(OC)cc2	0.42	1
264	Cc1cc(C)nc(Nc2ccccc2)n1	0.0	0
265	CC1(C)C(C=C(Cl)C(F)(F)F)C1C(=O)OC(C#N)c1cccc(Oc2ccccc2)c1	0.0	0
266	CCC(C)(CC)c1cc(NC(=O)c2c(OC)cccc2OC)on1	0.0	0
267	COc1ccc(-c2ccccc2)cc1NNC(=O)OC(C)C	0.0	0
268	OC(Cc1ccccc1Cl)(Cn1[nH]cnc1=S)C1(Cl)CC1	0.0	0
269	CCc1cccc(C)c1N(C(=O)CCl)C(C)COC	0.0	0
270	c1cc(C=NO)cc[n+]1-CCCCO-c2ccc(Br)cc2	0.57	1
271	CP(=O)(O)CCC(N)C(=O)O.N	0.0	0
272	CCOc1cc(C(C)(C)C)ccc1C1COC(c2c(F)cccc2F)=N1	0.0	0
273	CNC(=O)Oc1cccc(N=CN(C)C)c1	0.0	0
274	COc1c(Cl)ccc(Cl)c1C(=O)O	0.0	0
275	Cc1cc(C)nc(NC(=O)NS(=O)(=O)c2ccccc2C(=O)OC2COC2)n1	0.0	0
276	CCOC(=O)OC1=C(c2cc(C)ccc2C)C(=O)NC12CCC(OC)CC2	0.0	0
277	C#CCOC(=O)C(C)Oc1ccc(Oc2ncc(Cl)cc2F)cc1	0.0	0
278	CCCCCCCCc1c(CC)nc2ncnn2c1N	0.0	0
279	COc1nc(C)nc(NC(=O)NS(=O)(=O)c2ccccc2OCCCl)n1	0.0	0
280	CN1COCN(Cc2cnc(Cl)s2)C1=N[N+](=O)[O-]	0.0	0
281	CC1=NNC(=O)N(N=Cc2cccnc2)C1	0.0	0
282	CC(C)(C)c1ccc(CSc2cnn(C(C)(C)C)c(=O)c2Cl)cc1	0.0	0
283	CNC(=O)C(=NOC)c1ccccc1COc1cc(C)ccc1C	0.0	0
284	CC(C)C(Nc1ccc(C(F)(F)F)cc1Cl)C(=O)OC(C#N)c1cccc(Oc2ccccc2)c1	0.0	0
285	CCC(C)(C)C(=O)OC1=C(c2ccc(Cl)cc2Cl)C(=O)OC12CCCCC2	0.0	0
286	c1cc(C=NO)cc[n+]1-CCCCCO-c2ccc(OC-c3ccccc3)cc2	0.29	1
287	C#CCOc1ccc(CCNC(=O)C(OCC#C)c2ccc(Cl)cc2)cc1OC	0.0	0
288	N#Cc1sc2c(=O)c3ccccc3c(=O)c=2sc1C#N	0.0	0
289	CC1C(c2ccc(Cl)cc2)SC(=O)N1C(=O)NC1CCCCC1	0.0	0
290	CC(COc1ccc(Oc2ccccc2)cc1)Oc1ccccn1	0.0	0
291	c1cc2cc(OCCC-[n+]3ccc(C=NO)cc3)ccc2cc1	0.65	1
292	COc1cnc(OC)n2nc(NS(=O)(=O)c3c(OCC(F)F)cccc3C(F)(F)F)nc12	0.0	0
293	CCOc1ccc(NC(=O)OC(C)C)cc1OCC	0.0	0
294	CS(=O)(=O)c1cc(C(F)(F)F)ccc1C(=O)c1cnoc1C1CC1	0.0	0
295	CC(C)(C)C(O)C(Oc1ccc(Cl)cc1)n1cncn1	0.0	0
296	CC(=NC#N)N(C)Cc1ccc(Cl)nc1	0.0	0
297	CCOC(=O)NCCOc1ccc(Oc2ccccc2)cc1	0.0	0
298	c1cc(C=NO)cc[n+]1-CCCO-c2ccc(C(C)(C)C)cc2	0.34	1
299	COP(=S)(OC)Oc1nc(Cl)c(Cl)cc1Cl	0.0	0
300	CC(C)c1ccc(NC(=O)N(C)C)cc1	0.0	0
301	CC(Oc1ccc(Oc2cnc3cc(Cl)ccc3n2)cc1)C(=O)OCC1CCCO1	0.0	0
302	CCOC(=O)C(Cl)Cc1cc(-n2nc(C)n(C(F)F)c2=O)c(F)cc1Cl	0.0	0
303	CCOCCN(C(=O)CCl)C(=C(C)C)c1ccccc1	0.0	0
304	CNC1=C(c2cccc(C(F)(F)F)c2)C(=O)C(c2ccccc2)O1	0.0	0
305	COCC(C)N(C(=O)CCl)c1c(C)csc1C	0.0	0
306	c1cc(C=NO)cc[n+]1-CCCCO-c2cc(Cl)ccc2	0.47	1
307	O=C1CC(C(=O)O)CC(=O)C1=C(O)C1CC1	0.0	0
308	COC(=O)c1cc(Oc2ccc(Cl)cc2Cl)ccc1[N+](=O)[O-]	0.0	0
309	c1(=O)oc2cc(OCCCC-[n+]3ccc(C=NO)cc3)ccc2c(C)c1	0.27	1
310	COc1cc(C)c(C(=O)c2c(OC)ncc(Cl)c2C)c(OC)c1OC	0.0	0
311	COC(=O)c1sccc1S(=O)(=O)NC(=O)Nc1nc(C)nc(OC)n1	0.0	0
312	c1cc(C=NO)cc[n+]1-CCCCO-c2ccc(O-c3ccccc3)cc2	0.31	1
313	c1cc(C=NO)cc[n+]1-CCCO-c2cc(C)c(Cl)c(C)c2	0.54	1
314	CS(=O)(=O)c1ccc(C(=O)C2C(=O)CCCC2=O)c(Cl)c1	0.0	0
315	CC1(C)C(C=C(Cl)Cl)C1C(=O)OC(C#N)c1cccc(Oc2ccccc2)c1	0.0	0
316	CC(C)Oc1cccc(NC(=O)c2ccccc2C(F)(F)F)c1	0.0	0
317	CC1=C(C(=O)Nc2ccccc2)SCCO1	0.0	0
318	N#CCNC(=O)c1cnccc1C(F)(F)F	0.0	0
319	c1cc(C=NO)cc[n+]1-CCCO-c2ccc(C(=O)-c3ccccc3)cc2	0.78	1
320	COC(=O)c1ccccc1S(=O)(=O)NC(=O)Nc1nc(C)nc(OC)n1	0.0	0
321	Cc1cccc(C(=O)O)c1S(=O)(=O)NC(=O)Nc1nc(OCC(F)(F)F)nc(N(C)C)n1	0.0	0
322	O=C(Nc1ccccc1-c1ccc(Cl)cc1)c1cccnc1Cl	0.0	0
